FIRMWARE_VER:9.0
MACHINE_MODEL:RK3368
MACHINE_ID:007
MANUFACTURER: RK3368
MAGIC: 0x5041524B
ATAG: 0x00200800
MACHINE: 3368
CHECK_MASK: 0x80
PWR_HLD: 0,0,A,0,1
TYPE: GPT
CMDLINE:
mtdparts=rk29xxnand:0x00002000@0x00004000(uboot),0x00002000@0x00006000(trust),0x00002000@0x00008000(misc),0x00008000@0x0000a000(resource),0x00010000@0x00012000(kernel),0x00002000@0x00022000(dtb),0x00002000@0x00024000(dtbo),0x00000800@0x00026000(vbmeta),0x00010000@0x00026800(boot),0x00020000@0x00036800(recovery),0x00038000@0x00056800(backup),0x00002000@0x0008e800(security),0x00100000@0x00090800(cache),0x00500000@0x00190800(system),0x00008000@0x00690800(metadata),0x00100000@0x00698800(vendor),0x00100000@0x00798800(oem),0x00000400@0x00898800(frp),-@0x00898c00(userdata:grow)
uuid:system=af01642c-9b84-11e8-9b2a-234eb5e198a0

